Introduction to population structure inference in R
…
Here, they have an individual ID column, the position they plotted the individual in their admixture barplot, and the population name they assigned the individual.

pops <-
  read_csv(
    "https://github.com/ivanprates/2018_Anolis_EcolEvol/raw/master/data/plot_order_punctatus_n46.csv"
  )
## Parsed with column specification:
## cols(
##   ID = col_character(),
##   plot_order = col_double(),
##   pop = col_character()
## )

pops
## # A tibble: 46 x 3
##    ID           plot_order pop  
##    <chr>             <dbl> <chr>
##  1 BM288                18 Eam  
##  2 GN71                 21 Eam  
##  3 H1907                 6 Wam  
##  4 H1911                 4 Wam  
##  5 H2546                 7 Wam  
##  6 IBSPCRIB0361         34 AF   
##  7 ICST764              31 AF   
##  8 JFT459               37 AF   
##  9 JFT773               38 AF   
## 10 LG1299               44 AF   
## #  with 36 more rows
…
The anole_dapc object contains all of the information you need to use a more flexible plotting software, so we are going to do that here with ggplot2.

First, we need to extract and reshape the data to make it amenable to plotting. We need three pieces of information to do this- the individual coordinates across the first two linear discriminant axes (anole_dapc$ind.coord), the population assignment of each individual (pops$pop), and the cluster assignment (anole_dapc$grp).

#tidy the data for plotting. 
dapc_data_df <-
  # as_tibble() converts the ind.coord matrix to a special data frame called a tibble. 
  as_tibble(anole_dapc$ind.coord, rownames = "individual") %>%
  # mutate changes or adds columns to a data frame. Here, we're adding the population and group assignment columns to the data frame
  mutate(population = pops$pop,
         group = anole_dapc$grp)

dapc_data_df
## # A tibble: 46 x 5
##    individual           LD1   LD2 population group
##    <chr>              <dbl> <dbl> <chr>      <fct>
##  1 punc_BM288          3.55  7.32 Eam        1    
##  2 punc_GN71           3.80  5.89 Eam        1    
##  3 punc_H1907        -18.3  -2.03 Wam        2    
##  4 punc_H1911        -18.5  -2.08 Wam        2    
##  5 punc_H2546        -18.2  -1.97 Wam        2    
##  6 punc_IBSPCRIB0361   8.97 -5.64 AF         3    
##  7 punc_ICST764        9.12 -2.85 AF         3    
##  8 punc_JFT459         9.85 -5.97 AF         3    
##  9 punc_JFT773         9.85 -5.98 AF         3    
## 10 punc_LG1299         9.79 -5.02 AF         3    
## #  with 36 more rows
…
# now I need to rotate the table so individuals are columns and genotypes are rows
anole_geno <- anole_tidy %>% 
  pivot_wider(names_from = Indiv, values_from = geno_code) %>% 
  select(-Key)

anole_geno
## # A tibble: 3,249 x 46
##    punc_BM288 punc_GN71 punc_H1907 punc_H1911 punc_H2546 punc_IBSPCRIB03
##         <dbl>     <dbl>      <dbl>      <dbl>      <dbl>            <dbl>
##  1          2         0          2          2          2                2
##  2          2         2          0          0          1                2
##  3          2         2          0          0          1                2
##  4          2         1          2          1          2                9
##  5          2         2          2          2          2                2
##  6          2         2          0          0          0                2
##  7          2         2          0          0          1                2
##  8          1         2          0          0          0                2
##  9          2         2          0          0          0                2
## 10          2         2          2          2          2                0
## #  with 3,239 more rows, and 40 more variables: punc_ICST764 <dbl>,
## #   punc_JFT459 <dbl>, punc_JFT773 <dbl>, punc_LG1299 <dbl>,
## #   punc_LSUMZH12577 <dbl>, punc_LSUMZH12751 <dbl>, punc_LSUMZH13910 <dbl>,
## #   punc_LSUMZH14100 <dbl>, punc_LSUMZH14336 <dbl>, punc_LSUMZH15476 <dbl>,
## #   punc_MPEG20846 <dbl>, punc_MPEG21348 <dbl>, punc_MPEG22415 <dbl>,
## #   punc_MPEG24758 <dbl>, punc_MPEG26102 <dbl>, punc_MPEG28489 <dbl>,
## #   punc_MPEG29314 <dbl>, punc_MPEG29943 <dbl>, punc_MTR05978 <dbl>,
## #   punc_MTR12338 <dbl>, punc_MTR12511 <dbl>, punc_MTR15267 <dbl>,
## #   punc_MTR17744 <dbl>, punc_MTR18550 <dbl>, punc_MTR20798 <dbl>,
…
